UTG PRF vs. BB
…
    last_plot

The following object is masked from 'package:stats':

    filter

The following object is masked from 'package:graphics':

    layout

Let’s remember the player we’re analyzing is the BB in a situation where the UTG player has opened and the BB player has called. The UTG player has a strong range and the BB player will have a defending range. The initiative will be with the UTG preflop raiser, so we don’t expect the BB player to be leading for a bet on really any flops.

In green are generally bad flops for the BB player - they are low equity, and low EV flops, which aren’t bet much by BB vs. an UTG preflop raiser. They contain hands like 4s3d3c, which don’t connect well with either player’s range, or KsJdTc, which connects very well with the UTG preflop raiser’s range. They are shown below, sorted by how frequently they are bet.

# A tibble: 51 × 7
   Tree   Equity    EV bet_4.5_sqrt_ref cluster_k3 cluster_k4 cluster_k5
   <chr>   <dbl> <dbl>            <dbl> <fct>      <fct>      <fct>     
 1 7s6s5d   41.6  2.36            0.171 Cluster_1  Cluster_1  Cluster_1 
 2 Ts7s4s   42.8  2.42            0.163 Cluster_1  Cluster_1  Cluster_1 
 3 9s7s5s   42.3  2.45            0.156 Cluster_1  Cluster_1  Cluster_1 
 4 As8s6s   40.6  2.26            0.151 Cluster_1  Cluster_1  Cluster_1 
 5 6s5d3c   41.0  2.40            0.151 Cluster_1  Cluster_1  Cluster_1 
 6 Js5s3d   42.4  2.48            0.149 Cluster_1  Cluster_1  Cluster_1 
 7 Qs9d8s   40.9  2.26            0.140 Cluster_1  Cluster_1  Cluster_1 
 8 8s6d4c   41.9  2.51            0.138 Cluster_1  Cluster_1  Cluster_1 
 9 9s6s2s   40.7  2.26            0.131 Cluster_1  Cluster_1  Cluster_1 
10 Ts9s7d   44.1  2.52            0.116 Cluster_1  Cluster_1  Cluster_1 
# ℹ 41 more rows

In blue are flops with higher equity and EV. Unlike the green flops, we connect well with these flops. Like the green cluster, they are also not bet very often, and contain flops like Js6d4c.

# A tibble: 51 × 7
   Tree   Equity    EV bet_4.5_sqrt_ref cluster_k3 cluster_k4 cluster_k5
   <chr>   <dbl> <dbl>            <dbl> <fct>      <fct>      <fct>     
 1 7s6s5d   41.6  2.36            0.171 Cluster_1  Cluster_1  Cluster_1 
 2 Ts7s4s   42.8  2.42            0.163 Cluster_1  Cluster_1  Cluster_1 
 3 9s7s5s   42.3  2.45            0.156 Cluster_1  Cluster_1  Cluster_1 
 4 As8s6s   40.6  2.26            0.151 Cluster_1  Cluster_1  Cluster_1 
 5 6s5d3c   41.0  2.40            0.151 Cluster_1  Cluster_1  Cluster_1 
 6 Js5s3d   42.4  2.48            0.149 Cluster_1  Cluster_1  Cluster_1 
 7 Qs9d8s   40.9  2.26            0.140 Cluster_1  Cluster_1  Cluster_1 
 8 8s6d4c   41.9  2.51            0.138 Cluster_1  Cluster_1  Cluster_1 
 9 9s6s2s   40.7  2.26            0.131 Cluster_1  Cluster_1  Cluster_1 
10 Ts9s7d   44.1  2.52            0.116 Cluster_1  Cluster_1  Cluster_1 
# ℹ 41 more rows
…
